10/vlsi_10/dump.vcd
$date
    Jun 22, 2018  12:38:25
$end
$version
    TOOL:	ncsim	06.20-s004
$end
$timescale
    10 ps
$end

$scope module top $end

$scope module dut $end
$var parameter 32 !    WIDTH  $end
$var parameter 32 "    REGBITS  $end
$var wire      1 #    clk  $end
$var wire      1 $    reset  $end
$var wire      8 %    memdata [7:0] $end
$var wire      1 &    memread  $end
$var wire      1 '    memwrite  $end
$var wire      8 (    adr [7:0] $end
$var wire      8 )    writedata [7:0] $end
$var wire      1 *    instr [31] $end
$var wire      1 +    instr [30] $end
$var wire      1 ,    instr [29] $end
$var wire      1 -    instr [28] $end
$var wire      1 .    instr [27] $end
$var wire      1 /    instr [26] $end
$var wire      1 0    instr [25] $end
$var wire      1 1    instr [24] $end
$var wire      1 2    instr [23] $end
$var wire      1 3    instr [22] $end
$var wire      1 4    instr [21] $end
$var wire      1 5    instr [20] $end
$var wire      1 6    instr [19] $end
$var wire      1 7    instr [18] $end
$var wire      1 8    instr [17] $end
$var wire      1 9    instr [16] $end
$var wire      1 :    instr [15] $end
$var wire      1 ;    instr [14] $end
$var wire      1 <    instr [13] $end
$var wire      1 =    instr [12] $end
$var wire      1 >    instr [11] $end
$var wire      1 ?    instr [10] $end
$var wire      1 @    instr [9] $end
$var wire      1 A    instr [8] $end
$var wire      1 B    instr [7] $end
$var wire      1 C    instr [6] $end
$var wire      1 D    instr [5] $end
$var wire      1 E    instr [4] $end
$var wire      1 F    instr [3] $end
$var wire      1 G    instr [2] $end
$var wire      1 H    instr [1] $end
$var wire      1 I    instr [0] $end
$var wire      1 J    zero  $end
$var wire      1 K    alusrca  $end
$var wire      1 L    memtoreg  $end
$var wire      1 M    iord  $end
$var wire      1 N    pcen  $end
$var wire      1 O    regwrite  $end
$var wire      1 P    regdst  $end
$var wire      2 Q    aluop [1:0] $end
$var wire      2 R    pcsource [1:0] $end
$var wire      2 S    alusrcb [1:0] $end
$var wire      1 T    irwrite [3] $end
$var wire      1 U    irwrite [2] $end
$var wire      1 V    irwrite [1] $end
$var wire      1 W    irwrite [0] $end
$var wire      3 X    alucont [2:0] $end

$scope module cont $end
$var wire      1 #    clk  $end
$var wire      1 $    reset  $end
$var wire      1 *    op [5] $end
$var wire      1 +    op [4] $end
$var wire      1 ,    op [3] $end
$var wire      1 -    op [2] $end
$var wire      1 .    op [1] $end
$var wire      1 /    op [0] $end
$var wire      1 J    zero  $end
$var reg       1 Y    memread  $end
$var reg       1 Z    memwrite  $end
$var reg       1 [    alusrca  $end
$var reg       1 \    memtoreg  $end
$var reg       1 ]    iord  $end
$var wire      1 N    pcen  $end
$var reg       1 ^    regwrite  $end
$var reg       1 _    regdst  $end
$var reg       2 `    pcsource [1:0] $end
$var reg       2 a    alusrcb [1:0] $end
$var reg       2 b    aluop [1:0] $end
$var reg       4 c    irwrite [3:0] $end
$var parameter  4 d    FETCH1  $end
$var parameter  4 e    FETCH2  $end
$var parameter  4 f    FETCH3  $end
$var parameter  4 g    FETCH4  $end
$var parameter  4 h    DECODE  $end
$var parameter  4 i    MEMADR  $end
$var parameter  4 j    LBRD  $end
$var parameter  4 k    LBWR  $end
$var parameter  4 l    SBWR  $end
$var parameter  4 m    RTYPEEX  $end
$var parameter  4 n    RTYPEWR  $end
$var parameter  4 o    BEQEX  $end
$var parameter  4 p    JEX  $end
$var parameter  4 q    ADDIEX  $end
$var parameter  4 r    ADDIWR  $end
$var parameter  6 s    LB  $end
$var parameter  6 t    SB  $end
$var parameter  6 u    RTYPE  $end
$var parameter  6 v    BEQ  $end
$var parameter  6 w    ADDI  $end
$var parameter  6 x    J  $end
$var reg       4 y    state [3:0] $end
$var reg       4 z    nextstate [3:0] $end
$var reg       1 {    pcwrite  $end
$var reg       1 |    pcwritecond  $end
$upscope $end


$scope module ac $end
$var wire      2 Q    aluop [1:0] $end
$var wire      1 D    funct [5] $end
$var wire      1 E    funct [4] $end
$var wire      1 F    funct [3] $end
$var wire      1 G    funct [2] $end
$var wire      1 H    funct [1] $end
$var wire      1 I    funct [0] $end
$var reg       3 }    alucont [2:0] $end
$upscope $end


$scope module dp $end
$var parameter 32 ~    WIDTH  $end
$var parameter 32 !!   REGBITS  $end
$var wire      1 #    clk  $end
$var wire      1 $    reset  $end
$var wire      8 %    memdata [7:0] $end
$var wire      1 K    alusrca  $end
$var wire      1 L    memtoreg  $end
$var wire      1 M    iord  $end
$var wire      1 N    pcen  $end
$var wire      1 O    regwrite  $end
$var wire      1 P    regdst  $end
$var wire      2 R    pcsource [1:0] $end
$var wire      2 S    alusrcb [1:0] $end
$var wire      1 T    irwrite [3] $end
$var wire      1 U    irwrite [2] $end
$var wire      1 V    irwrite [1] $end
$var wire      1 W    irwrite [0] $end
$var wire      3 X    alucont [2:0] $end
$var wire      1 J    zero  $end
$var wire      1 *    instr [31] $end
$var wire      1 +    instr [30] $end
$var wire      1 ,    instr [29] $end
$var wire      1 -    instr [28] $end
$var wire      1 .    instr [27] $end
$var wire      1 /    instr [26] $end
$var wire      1 0    instr [25] $end
$var wire      1 1    instr [24] $end
$var wire      1 2    instr [23] $end
$var wire      1 3    instr [22] $end
$var wire      1 4    instr [21] $end
$var wire      1 5    instr [20] $end
$var wire      1 6    instr [19] $end
$var wire      1 7    instr [18] $end
$var wire      1 8    instr [17] $end
$var wire      1 9    instr [16] $end
$var wire      1 :    instr [15] $end
$var wire      1 ;    instr [14] $end
$var wire      1 <    instr [13] $end
$var wire      1 =    instr [12] $end
$var wire      1 >    instr [11] $end
$var wire      1 ?    instr [10] $end
$var wire      1 @    instr [9] $end
$var wire      1 A    instr [8] $end
$var wire      1 B    instr [7] $end
$var wire      1 C    instr [6] $end
$var wire      1 D    instr [5] $end
$var wire      1 E    instr [4] $end
$var wire      1 F    instr [3] $end
$var wire      1 G    instr [2] $end
$var wire      1 H    instr [1] $end
$var wire      1 I    instr [0] $end
$var wire      8 (    adr [7:0] $end
$var wire      8 )    writedata [7:0] $end
$var parameter  8 "!   CONST_ZERO  $end
$var parameter  8 #!   CONST_ONE  $end
$var wire      3 $!   ra1 [2:0] $end
$var wire      3 %!   ra2 [2:0] $end
$var wire      3 &!   wa [2:0] $end
$var wire      8 '!   pc [7:0] $end
$var wire      8 (!   nextpc [7:0] $end
$var wire      8 )!   md [7:0] $end
$var wire      8 *!   rd1 [7:0] $end
$var wire      8 +!   rd2 [7:0] $end
$var wire      8 ,!   wd [7:0] $end
$var wire      8 -!   a [7:0] $end
$var wire      8 .!   src1 [7:0] $end
$var wire      8 /!   src2 [7:0] $end
$var wire      8 0!   aluresult [7:0] $end
$var wire      8 1!   aluout [7:0] $end
$var wire      8 2!   constx4 [7:0] $end

$scope module regmux $end
$var parameter 32 3!   WIDTH  $end
$var wire      1 7    d0 [2] $end
$var wire      1 8    d0 [1] $end
$var wire      1 9    d0 [0] $end
$var wire      1 <    d1 [2] $end
$var wire      1 =    d1 [1] $end
$var wire      1 >    d1 [0] $end
$var wire      1 P    s  $end
$var wire      3 &!   y [2:0] $end
$upscope $end


$scope module ir0 $end
$var parameter 32 4!   WIDTH  $end
$var wire      1 #    clk  $end
$var wire      1 W    en  $end
$var wire      8 %    d [7:0] $end
$var reg       8 5!   q [7:0] $end
$upscope $end


$scope module ir1 $end
$var parameter 32 6!   WIDTH  $end
$var wire      1 #    clk  $end
$var wire      1 V    en  $end
$var wire      8 %    d [7:0] $end
$var reg       8 7!   q [7:0] $end
$upscope $end


$scope module ir2 $end
$var parameter 32 8!   WIDTH  $end
$var wire      1 #    clk  $end
$var wire      1 U    en  $end
$var wire      8 %    d [7:0] $end
$var reg       8 9!   q [7:0] $end
$upscope $end


$scope module ir3 $end
$var parameter 32 :!   WIDTH  $end
$var wire      1 #    clk  $end
$var wire      1 T    en  $end
$var wire      8 %    d [7:0] $end
$var reg       8 ;!   q [7:0] $end
$upscope $end


$scope module pcreg $end
$var parameter 32 <!   WIDTH  $end
$var wire      1 #    clk  $end
$var wire      1 $    reset  $end
$var wire      1 N    en  $end
$var wire      8 (!   d [7:0] $end
$var reg       8 =!   q [7:0] $end
$upscope $end


$scope module mdr $end
$var parameter 32 >!   WIDTH  $end
$var wire      1 #    clk  $end
$var wire      8 %    d [7:0] $end
$var reg       8 ?!   q [7:0] $end
$upscope $end


$scope module areg $end
$var parameter 32 @!   WIDTH  $end
$var wire      1 #    clk  $end
$var wire      8 *!   d [7:0] $end
$var reg       8 A!   q [7:0] $end
$upscope $end


$scope module wrd $end
$var parameter 32 B!   WIDTH  $end
$var wire      1 #    clk  $end
$var wire      8 +!   d [7:0] $end
$var reg       8 C!   q [7:0] $end
$upscope $end


$scope module res $end
$var parameter 32 D!   WIDTH  $end
$var wire      1 #    clk  $end
$var wire      8 0!   d [7:0] $end
$var reg       8 E!   q [7:0] $end
$upscope $end


$scope module adrmux $end
$var parameter 32 F!   WIDTH  $end
$var wire      8 '!   d0 [7:0] $end
$var wire      8 1!   d1 [7:0] $end
$var wire      1 M    s  $end
$var wire      8 (    y [7:0] $end
$upscope $end


$scope module src1mux $end
$var parameter 32 G!   WIDTH  $end
$var wire      8 '!   d0 [7:0] $end
$var wire      8 -!   d1 [7:0] $end
$var wire      1 K    s  $end
$var wire      8 .!   y [7:0] $end
$upscope $end


$scope module src2mux $end
$var parameter 32 H!   WIDTH  $end
$var wire      8 )    d0 [7:0] $end
$var wire      8 I!   d1 [7:0] $end
$var wire      1 B    d2 [7] $end
$var wire      1 C    d2 [6] $end
$var wire      1 D    d2 [5] $end
$var wire      1 E    d2 [4] $end
$var wire      1 F    d2 [3] $end
$var wire      1 G    d2 [2] $end
$var wire      1 H    d2 [1] $end
$var wire      1 I    d2 [0] $end
$var wire      8 2!   d3 [7:0] $end
$var wire      2 S    s [1:0] $end
$var reg       8 J!   y [7:0] $end
$upscope $end


$scope module pcmux $end
$var parameter 32 K!   WIDTH  $end
$var wire      8 0!   d0 [7:0] $end
$var wire      8 1!   d1 [7:0] $end
$var wire      8 2!   d2 [7:0] $end
$var wire      8 L!   d3 [7:0] $end
$var wire      2 R    s [1:0] $end
$var reg       8 M!   y [7:0] $end
$upscope $end


$scope module wdmux $end
$var parameter 32 N!   WIDTH  $end
$var wire      8 1!   d0 [7:0] $end
$var wire      8 )!   d1 [7:0] $end
$var wire      1 L    s  $end
$var wire      8 ,!   y [7:0] $end
$upscope $end


$scope module rf $end
$var parameter 32 O!   WIDTH  $end
$var parameter 32 P!   REGBITS  $end
$var wire      1 #    clk  $end
$var wire      1 O    regwrite  $end
$var wire      3 $!   ra1 [2:0] $end
$var wire      3 %!   ra2 [2:0] $end
$var wire      3 &!   wa [2:0] $end
$var wire      8 ,!   wd [7:0] $end
$var wire      8 *!   rd1 [7:0] $end
$var wire      8 +!   rd2 [7:0] $end
$upscope $end


$scope module alunit $end
$var parameter 32 Q!   WIDTH  $end
$var wire      8 .!   a [7:0] $end
$var wire      8 /!   b [7:0] $end
$var wire      3 X    alucont [2:0] $end
$var reg       8 R!   result [7:0] $end
$var wire      8 S!   b2 [7:0] $end
$var wire      8 T!   sum [7:0] $end
$var wire      8 U!   slt [7:0] $end
$upscope $end


$scope module zd $end
$var parameter 32 V!   WIDTH  $end
$var wire      8 0!   a [7:0] $end
$var wire      1 J    y  $end
$upscope $end

$upscope $end

$upscope $end

$upscope $end

$enddefinitions $end
#2200
$dumpvars
b1000 V!
b1000 Q!
b11 P!
b1000 O!
b1000 N!
b1000 K!
b1000 H!
b1000 G!
b1000 F!
b1000 D!
b1000 B!
b1000 @!
b1000 >!
b1000 <!
b1000 :!
b1000 8!
b1000 6!
b1000 4!
b11 3!
b1 #!
b0 "!
b11 !!
b1000 ~
b10 x
b1000 w
b100 v
b0 u
b101000 t
b100000 s
b1111 r
b1110 q
b1101 p
b1100 o
b1011 n
b1010 m
b1001 l
b1000 k
b111 j
b110 i
b101 h
b100 g
b11 f
b10 e
b1 d
b11 "
b1000 !
1#
0$
b100000 %
1&
0'
b0 (
bx )
x*
x+
x,
x-
x.
x/
x0
x1
x2
x3
x4
x5
x6
x7
x8
x9
x:
x;
x<
x=
x>
x?
x@
xA
xB
xC
xD
xE
xF
xG
xH
xI
0J
0K
0L
0M
1N
0O
0P
b0 Q
b0 R
b1 S
1T
0U
0V
0W
b10 X
1Y
0Z
0[
0\
0]
0^
0_
b0 `
b1 a
b0 b
b1000 c
b1 y
b10 z
1{
0|
b10 }
bx $!
bx %!
bx &!
b0 '!
b1 (!
bx )!
bx *!
bx +!
bx ,!
bx -!
b0 .!
b1 /!
b1 0!
bx 1!
bx00 2!
bx 5!
bx 7!
bx 9!
bx ;!
b0 =!
bx ?!
bx A!
bx C!
bx E!
b1 I!
b1 J!
b0 L!
b1 M!
b1 R!
b1 S!
b1 T!
b0 U!
$end
#4000
0#
#6000
1#
b1 E!
b100000 ?!
b1 =!
b100000 ;!
b10 y
0*
0+
1,
0-
0.
0/
00
01
b1 '!
b100000 )!
b1 1!
b1 ,!
b1 (
b1 .!
b10 T!
b11 z
b100 c
b10 R!
b10 0!
b11 %
0T
1U
b10 M!
b10 (!
#8000
0#
#10000
1#
b10 E!
b11 ?!
b10 =!
b11 9!
b11 y
02
03
04
05
06
07
18
19
b10 '!
b11 )!
b10 1!
b10 ,!
b10 (
b10 .!
b11 %!
b11 &!
b0 $!
b0 *!
b11 T!
b100 z
b10 c
b11 R!
b11 0!
b0 %
0U
1V
b11 M!
b11 (!
#12000
0#
#14000
1#
b11 E!
b0 A!
b0 ?!
b11 =!
b0 7!
b100 y
0:
0;
0<
0=
0>
0?
0@
0A
b11 '!
b0 )!
b0 -!
b11 1!
b11 ,!
b11 (
b11 .!
b100 T!
b101 z
b1 c
b100 R!
b100 0!
0V
1W
b100 M!
b100 (!
#16000
0#
#18000
1#
b100 E!
b100 =!
b0 5!
b101 y
0B
0C
0D
0E
0F
0G
0H
0I
b100 '!
b100 1!
b100 ,!
b100 (
b100 .!
b0 2!
b101 T!
b1110 z
b0 c
0{
0Y
b11 a
b101 R!
0N
b101 0!
b100000 %
b11 S
0&
0W
b101 M!
b0 J!
b0 /!
b101 (!
b0 S!
b100 T!
b100 R!
b100 0!
b100 M!
b100 (!
#20000
0#
#22000
1#
b100000 ?!
b1110 y
b100000 )!
b1111 z
b10 a
1[
1K
b10 S
b0 .!
b0 T!
b0 R!
b0 0!
1J
b0 M!
b0 (!
#24000
0#
#26000
1#
b0 E!
b1111 y
b0 1!
b0 ,!
b1 z
0[
b0 a
1^
1O
b0 S
0K
b100 .!
b100 T!
bx J!
b100 R!
b100 0!
bx /!
bx S!
0J
bx T!
b0x U!
b100 M!
bx R!
bx 0!
b100 (!
xJ
bx M!
bx (!
#28000
0#
#30000
1#
bx E!
b1 y
b0 +!
bx 1!
bx ,!
b10 z
0^
1Y
b1000 c
b1 a
1{
1N
b1 S
1T
1&
0O
b1 J!
b1 /!
b1 S!
b101 T!
b0 U!
b101 R!
b101 0!
0J
b101 M!
b101 (!
#32000
0#
#34000
1#
b101 E!
b0 C!
b101 =!
b10 y
b101 '!
b0 )
b101 1!
b101 ,!
b101 (
b101 .!
b110 T!
b11 z
b100 c
b110 R!
b110 0!
b100 %
0T
1U
b110 M!
b110 (!
#36000
0#
#38000
1#
b110 E!
b100 ?!
b110 =!
b100 9!
b11 y
17
08
09
b110 '!
b100 )!
b110 1!
b110 ,!
b110 (
b110 .!
b100 %!
b100 &!
bx +!
b111 T!
b100 z
b10 c
b111 R!
b111 0!
b0 %
0U
1V
b111 M!
b111 (!
#40000
0#
#42000
1#
b111 E!
bx C!
b0 ?!
b111 =!
b100 y
b111 '!
b0 )!
bx )
b111 1!
b111 ,!
b111 (
b111 .!
b1000 T!
b101 z
b1 c
b1000 R!
b1000 0!
b10100 %
0V
1W
b1000 M!
b1000 (!
#44000
0#
#46000
1#
b1000 E!
b10100 ?!
b1000 =!
b10100 5!
b101 y
1E
1G
b1000 '!
b10100 )!
b1000 1!
b1000 ,!
b1000 (
b1000 .!
b1010000 2!
b1001 T!
b1110 z
b0 c
0{
0Y
b11 a
b1001 R!
0N
b1001 0!
b10000 %
b11 S
0&
0W
b1001 M!
b1010000 J!
b1010000 /!
b1001 (!
b1010000 S!
b1011000 T!
b1011000 R!
b1011000 0!
b1011000 M!
b1011000 (!
#48000
0#
#50000
1#
b1011000 E!
b10000 ?!
b1110 y
b10000 )!
b1011000 1!
b1011000 ,!
b1111 z
b10 a
1[
1K
b10 S
b0 .!
b1010000 T!
b10100 J!
b1010000 R!
b1010000 0!
b10100 /!
b10100 S!
b10100 T!
b1010000 M!
b10100 R!
b10100 0!
b1010000 (!
b10100 M!
b10100 (!
#52000
0#
#54000
1#
b10100 E!
b1111 y
b10100 1!
b10100 ,!
b1 z
0[
b0 a
1^
1O
b0 S
0K
b1000 .!
b11100 T!
bx J!
b11100 R!
b11100 0!
bx /!
bx S!
bx T!
b0x U!
b11100 M!
bx R!
bx 0!
b11100 (!
xJ
bx M!
bx (!
#56000
0#
#58000
1#
bx E!
b1 y
b10100 +!
bx 1!
bx ,!
b10 z
0^
1Y
b1000 c
b1 a
1{
1N
b1 S
1T
1&
0O
b1 J!
b1 /!
b1 S!
b1001 T!
b0 U!
b1001 R!
b1001 0!
0J
b1001 M!
b1001 (!
#60000
0#
#62000
1#
b1001 E!
b10100 C!
b1001 =!
b10000 ;!
b10 y
0,
1-
b1001 '!
b10100 )
b1001 1!
b1001 ,!
b1001 (
b1001 .!
b1010 T!
b11 z
b100 c
b1010 R!
b1010 0!
b10000000 %
0T
1U
b1010 M!
b1010 (!
#64000
0#
#66000
1#
b1010 E!
b10000000 ?!
b1010 =!
b10000000 9!
b11 y
12
07
b1010 '!
b10000000 )!
b1010 1!
b1010 ,!
b1010 (
b1010 .!
b0 %!
b0 &!
b100 $!
b10100 *!
b0 +!
b1011 T!
b100 z
b10 c
b1011 R!
b1011 0!
b0 %
0U
1V
b1011 M!
b1011 (!
#68000
0#
#70000
1#
b1011 E!
b0 C!
b10100 A!
b0 ?!
b1011 =!
b100 y
b1011 '!
b0 )!
b10100 -!
b0 )
b1011 1!
b1011 ,!
b1011 (
b1011 .!
b1100 T!
b101 z
b1 c
b1100 R!
b1100 0!
b11 %
0V
1W
b1100 M!
b1100 (!
#72000
0#
#74000
1#
b1100 E!
b11 ?!
b1100 =!
b11 5!
b101 y
0E
0G
1H
1I
b1100 '!
b11 )!
b1100 1!
b1100 ,!
b1100 (
b1100 .!
b1100 2!
b1101 T!
b1100 z
b0 c
0{
0Y
b11 a
b1101 R!
0N
b1101 0!
b0 %
b11 S
0&
0W
b1101 M!
b1100 J!
b1100 /!
b1101 (!
b1100 S!
b11000 T!
b11000 R!
b11000 0!
b11000 M!
b11000 (!
#76000
0#
#78000
1#
b11000 E!
b0 ?!
b1100 y
b0 )!
b11000 1!
b11000 ,!
b1 z
b0 a
1[
b1 b
1|
b1 `
b1 R
b1 Q
1K
b0 S
b10100 .!
b100000 T!
b110 }
b0 J!
b100000 R!
b100000 0!
b0 /!
b110 X
b100001 T!
b11111111 S!
b10100 T!
b10100 R!
b10100 0!
#80000
0#
#82000
1#
b10100 E!
b1 y
b10100 1!
b10100 ,!
b10 z
0|
0[
b0 b
b0 `
1Y
b1000 c
b1 a
1{
b10100 M!
1N
b10100 (!
b1 S
1T
1&
b0 R
b0 Q
0K
b1100 .!
b1100 T!
b1 J!
b10 }
b1100 R!
b1100 0!
b10 X
b1 /!
b1 S!
b1011 T!
b1101 T!
b1100 M!
b1101 R!
b1101 0!
b1100 (!
b1101 M!
b1101 (!
#84000
0#
#86000
1#
b1101 E!
b1101 =!
b0 ;!
b10 y
0-
b1101 '!
b1101 1!
b1101 ,!
b1101 (
b1101 .!
b1110 T!
b11 z
b100 c
b1110 R!
b1110 0!
b1100100 %
0T
1U
b1110 M!
b1110 (!
#88000
0#
#90000
1#
b1110 E!
b1100100 ?!
b1110 =!
b1100100 9!
b11 y
02
13
14
17
b1110 '!
b1100100 )!
b1110 1!
b1110 ,!
b1110 (
b1110 .!
b100 %!
b100 &!
b11 $!
b0 *!
b10100 +!
b1111 T!
b100 z
b10 c
b1111 R!
b1111 0!
b11000 %
0U
1V
b1111 M!
b1111 (!
#92000
0#
#94000
1#
b1111 E!
b10100 C!
b0 A!
b11000 ?!
b1111 =!
b11000 7!
b100 y
1=
1>
b1111 '!
b11000 )!
b0 -!
b10100 )
b1111 1!
b1111 ,!
b1111 (
b1111 .!
b10000 T!
b101 z
b1 c
b10000 R!
b10000 0!
b100000 %
0V
1W
b10000 M!
b10000 (!
#96000
0#
#98000
1#
b10000 E!
b100000 ?!
b10000 =!
b100000 5!
b101 y
1D
0H
0I
b10000 '!
b100000 )!
b10000 1!
b10000 ,!
b10000 (
b10000 .!
b10000000 2!
b10001 T!
b1010 z
b0 c
0{
0Y
b11 a
b10001 R!
0N
b10001 0!
b11 S
0&
0W
b10001 M!
b10000000 J!
b10000000 /!
b10001 (!
b10000000 S!
b10010000 T!
b1 U!
b10010000 R!
b10010000 0!
b10010000 M!
b10010000 (!
#100000
0#
#102000
1#
b10010000 E!
b1010 y
b10010000 1!
b10010000 ,!
b1011 z
b0 a
1[
b10 b
b10 Q
1K
b0 S
b0 .!
b10000000 T!
b10100 J!
b10000000 R!
b10000000 0!
b10100 /!
b10100 S!
b10100 T!
b0 U!
b10000000 M!
b10100 R!
b10100 0!
b10000000 (!
b10100 M!
b10100 (!
#104000
0#
#106000
1#
b10100 E!
b1011 y
b10100 1!
b10100 ,!
b1 z
0[
b0 b
1_
1^
1O
1P
b0 Q
0K
b10000 .!
b11 &!
b100100 T!
b100100 R!
b100100 0!
b100100 M!
b100100 (!
#108000
0#
#110000
1#
b100100 E!
b1 y
b10100 *!
b100100 1!
b100100 ,!
b10 z
0^
0_
1Y
b1000 c
b1 a
1{
1N
b1 S
1T
1&
0P
0O
b100 &!
b1 J!
b1 /!
b1 S!
b10001 T!
b10001 R!
b10001 0!
b10001 M!
b10001 (!
#112000
0#
#114000
1#
b10001 E!
b10100 A!
b10001 =!
b100000 ;!
b10 y
1,
b10001 '!
b10100 -!
b10001 1!
b10001 ,!
b10001 (
b10001 .!
b10010 T!
b11 z
b100 c
b10010 R!
b10010 0!
b10000100 %
0T
1U
b10010 M!
b10010 (!
#116000
0#
#118000
1#
b10010 E!
b10000100 ?!
b10010 =!
b10000100 9!
b11 y
12
03
04
b10010 '!
b10000100 )!
b10010 1!
b10010 ,!
b10010 (
b10010 .!
b100 $!
b10011 T!
b100 z
b10 c
b10011 R!
b10011 0!
b11111111 %
0U
1V
b10011 M!
b10011 (!
#120000
0#
#122000
1#
b10011 E!
b11111111 ?!
b10011 =!
b11111111 7!
b100 y
1:
1;
1<
1?
1@
1A
b10011 '!
b11111111 )!
b10011 1!
b10011 ,!
b10011 (
b10011 .!
b10100 T!
b101 z
b1 c
b10100 R!
b10100 0!
0V
1W
b10100 M!
b10100 (!
#124000
0#
#126000
1#
b10100 E!
b10100 =!
b11111111 5!
b101 y
1B
1C
1E
1F
1G
1H
1I
b10100 '!
b10100 1!
b10100 ,!
b10100 (
b10100 .!
b11111100 2!
b10101 T!
b1110 z
b0 c
0{
0Y
b11 a
b10101 R!
0N
b10101 0!
b1000 %
b11 S
0&
0W
b10101 M!
b11111100 J!
b11111100 /!
b10101 (!
b11111100 S!
b10000 T!
b10000 R!
b10000 0!
b10000 M!
b10000 (!
#128000
0#
#130000
1#
b10000 E!
b1000 ?!
b1110 y
b1000 )!
b10000 1!
b10000 ,!
b1111 z
b10 a
1[
1K
b10 S
b11111111 J!
b11111111 /!
b11111111 S!
b10011 T!
b10011 R!
b10011 0!
b10011 M!
b10011 (!
#132000
0#
#134000
1#
b10011 E!
b1111 y
b10011 1!
b10011 ,!
b1 z
0[
b0 a
1^
1O
b0 S
0K
b10100 J!
b10100 /!
b10100 S!
b101000 T!
b101000 R!
b101000 0!
b101000 M!
b101000 (!
#136000
0#
#138000
1#
b101000 E!
b1 y
b10011 +!
b10011 *!
b101000 1!
b101000 ,!
b10 z
0^
1Y
b1000 c
b1 a
1{
1N
b1 S
1T
1&
0O
b1 J!
b1 /!
b1 S!
b10101 T!
b10101 R!
b10101 0!
b10101 M!
b10101 (!
#140000
0#
#142000
1#
b10101 E!
b10011 C!
b10011 A!
b10101 =!
b1000 ;!
b10 y
0,
1.
b10101 '!
b10011 -!
b10011 )
b10101 1!
b10101 ,!
b10101 (
b10101 .!
b10110 T!
b11 z
b100 c
b10110 R!
b10110 0!
b0 %
0T
1U
b10110 M!
b10110 (!
#144000
0#
#146000
1#
b10110 E!
b0 ?!
b10110 =!
b0 9!
b11 y
02
07
b10110 '!
b0 )!
b10110 1!
b10110 ,!
b10110 (
b10110 .!
b0 %!
b0 &!
b0 $!
b0 *!
b0 +!
b10111 T!
b100 z
b10 c
b10111 R!
b10111 0!
0U
1V
b10111 M!
b10111 (!
#148000
0#
#150000
1#
b10111 E!
b0 C!
b0 A!
b10111 =!
b0 7!
b100 y
0:
0;
0<
0=
0>
0?
0@
0A
b10111 '!
b0 -!
b0 )
b10111 1!
b10111 ,!
b10111 (
b10111 .!
b11000 T!
b101 z
b1 c
b11000 R!
b11000 0!
b10 %
0V
1W
b11000 M!
b11000 (!
#152000
0#
#154000
1#
b11000 E!
b10 ?!
b11000 =!
b10 5!
b101 y
0B
0C
0D
0E
0F
0G
0I
b11000 '!
b10 )!
b11000 1!
b11000 ,!
b11000 (
b11000 .!
b1000 2!
b11001 T!
b1101 z
b0 c
0{
0Y
b11 a
b11001 R!
0N
b11001 0!
b10100000 %
b11 S
0&
0W
b11001 M!
b1000 J!
b1000 /!
b11001 (!
b1000 S!
b100000 T!
b100000 R!
b100000 0!
b100000 M!
b100000 (!
#156000
0#
#158000
1#
b100000 E!
b10100000 ?!
b1101 y
b10100000 )!
b100000 1!
b100000 ,!
b1 z
b0 a
1{
b10 `
1N
b10 R
b0 S
b1000 M!
b0 J!
b0 /!
b1000 (!
b0 S!
b11000 T!
b11000 R!
b11000 0!
#160000
0#
#162000
1#
b11000 E!
b1000 =!
b1 y
b1000 '!
b11000 1!
b11000 ,!
b1000 (
b1000 .!
b1000 T!
b10 z
b0 `
1Y
b1000 c
b1 a
b1000 R!
b10000 %
b1000 0!
b1 S
1T
1&
b0 R
b1 J!
b1 /!
b1 S!
b1001 T!
b1001 R!
b1001 0!
b1001 M!
b1001 (!
#164000
0#
#166000
1#
b1001 E!
b10000 ?!
b1001 =!
b10000 ;!
b10 y
1-
0.
b1001 '!
b10000 )!
b1001 1!
b1001 ,!
b1001 (
b1001 .!
b1010 T!
b11 z
b100 c
b1010 R!
b1010 0!
b10000000 %
0T
1U
b1010 M!
b1010 (!
#168000
0#
#170000
1#
b1010 E!
b10000000 ?!
b1010 =!
b10000000 9!
b11 y
12
b1010 '!
b10000000 )!
b1010 1!
b1010 ,!
b1010 (
b1010 .!
b100 $!
b10011 *!
b1011 T!
b100 z
b10 c
b1011 R!
b1011 0!
b0 %
0U
1V
b1011 M!
b1011 (!
#172000
0#
#174000
1#
b1011 E!
b10011 A!
b0 ?!
b1011 =!
b100 y
b1011 '!
b0 )!
b10011 -!
b1011 1!
b1011 ,!
b1011 (
b1011 .!
b1100 T!
b101 z
b1 c
b1100 R!
b1100 0!
b11 %
0V
1W
b1100 M!
b1100 (!
#176000
0#
#178000
1#
b1100 E!
b11 ?!
b1100 =!
b11 5!
b101 y
1I
b1100 '!
b11 )!
b1100 1!
b1100 ,!
b1100 (
b1100 .!
b1100 2!
b1101 T!
b1100 z
b0 c
0{
0Y
b11 a
b1101 R!
0N
b1101 0!
b0 %
b11 S
0&
0W
b1101 M!
b1100 J!
b1100 /!
b1101 (!
b1100 S!
b11000 T!
b11000 R!
b11000 0!
b11000 M!
b11000 (!
#180000
0#
#182000
1#
b11000 E!
b0 ?!
b1100 y
b0 )!
b11000 1!
b11000 ,!
b1 z
b0 a
1[
b1 b
1|
b1 `
b1 R
b1 Q
1K
b0 S
b10011 .!
b11111 T!
b110 }
b0 J!
b11111 R!
b11111 0!
b0 /!
b110 X
b100000 T!
b11111111 S!
b10011 T!
b10011 R!
b10011 0!
#184000
0#
#186000
1#
b10011 E!
b1 y
b10011 1!
b10011 ,!
b10 z
0|
0[
b0 b
b0 `
1Y
b1000 c
b1 a
1{
b10011 M!
1N
b10011 (!
b1 S
1T
1&
b0 R
b0 Q
0K
b1100 .!
b1100 T!
b1 J!
b10 }
b1100 R!
b1100 0!
b10 X
b1 /!
b1 S!
b1011 T!
b1101 T!
b1100 M!
b1101 R!
b1101 0!
b1100 (!
b1101 M!
b1101 (!
#188000
0#
#190000
1#
b1101 E!
b1101 =!
b0 ;!
b10 y
0-
b1101 '!
b1101 1!
b1101 ,!
b1101 (
b1101 .!
b1110 T!
b11 z
b100 c
b1110 R!
b1110 0!
b1100100 %
0T
1U
b1110 M!
b1110 (!
#192000
0#
#194000
1#
b1110 E!
b1100100 ?!
b1110 =!
b1100100 9!
b11 y
02
13
14
17
b1110 '!
b1100100 )!
b1110 1!
b1110 ,!
b1110 (
b1110 .!
b100 %!
b100 &!
b11 $!
b10100 *!
b10011 +!
b1111 T!
b100 z
b10 c
b1111 R!
b1111 0!
b11000 %
0U
1V
b1111 M!
b1111 (!
#196000
0#
#198000
1#
b1111 E!
b10011 C!
b10100 A!
b11000 ?!
b1111 =!
b11000 7!
b100 y
1=
1>
b1111 '!
b11000 )!
b10100 -!
b10011 )
b1111 1!
b1111 ,!
b1111 (
b1111 .!
b10000 T!
b101 z
b1 c
b10000 R!
b10000 0!
b100000 %
0V
1W
b10000 M!
b10000 (!
#200000
0#
